module gitee.com/geektime-geekbang/geektime-go

go 1.18

require (
	github.com/DATA-DOG/go-sqlmock v1.5.0
	github.com/Shopify/sarama v1.38.1
	github.com/beego/beego/v2 v2.0.5
	github.com/gin-contrib/sessions v0.0.5
	github.com/gin-gonic/gin v1.8.1
	github.com/go-redis/redis/v9 v9.0.0-rc.2
	github.com/go-sql-driver/mysql v1.7.0
	github.com/golang/mock v1.4.4
	github.com/google/uuid v1.2.0
	github.com/gorilla/sessions v1.2.1
	github.com/gotomicro/ekit v0.0.4
	github.com/hashicorp/golang-lru v0.5.4
	github.com/kataras/iris/v12 v12.1.8
	github.com/labstack/echo-contrib v0.11.0
	github.com/labstack/echo/v4 v4.9.1
	github.com/mattn/go-sqlite3 v2.0.3+incompatible
	github.com/opentracing/opentracing-go v1.2.0
	github.com/patrickmn/go-cache v2.1.0+incompatible
	github.com/prometheus/client_golang v1.12.2
	github.com/silenceper/pool v1.0.0
	github.com/stretchr/testify v1.8.1
	go.etcd.io/etcd/client/v3 v3.5.4
	go.opentelemetry.io/otel v1.11.1
	go.opentelemetry.io/otel/exporters/jaeger v1.11.1
	go.opentelemetry.io/otel/exporters/zipkin v1.11.1
	go.opentelemetry.io/otel/sdk v1.11.1
	go.opentelemetry.io/otel/trace v1.11.1
	go.uber.org/zap v1.17.0
	golang.org/x/crypto v0.0.0-20221010152910-d6f0a8c073c2
	golang.org/x/sync v0.1.0
	google.golang.org/grpc v1.50.0
	google.golang.org/protobuf v1.28.1
	gorm.io/driver/mysql v1.4.6
	gorm.io/driver/sqlite v1.1.4
	gorm.io/gorm v1.23.8
)

require (
	github.com/BurntSushi/toml v0.3.1 // indirect
	github.com/CloudyKit/fastprinter v0.0.0-20200109182630-33d98a066a53 // indirect
	github.com/CloudyKit/jet/v3 v3.0.0 // indirect
	github.com/Shopify/goreferrer v0.0.0-20181106222321-ec9c9a553398 // indirect
	github.com/ajg/form v1.5.1 // indirect
	github.com/aymerick/raymond v2.0.3-0.20180322193309-b565731e1464+incompatible // indirect
	github.com/beorn7/perks v1.0.1 // indirect
	github.com/cespare/xxhash/v2 v2.1.2 // indirect
	github.com/coreos/go-semver v0.3.0 // indirect
	github.com/coreos/go-systemd/v22 v22.3.2 // indirect
	github.com/davecgh/go-spew v1.1.1 // indirect
	github.com/dgryski/go-rendezvous v0.0.0-20200823014737-9f7001d12a5f // indirect
	github.com/eapache/go-resiliency v1.3.0 // indirect
	github.com/eapache/go-xerial-snappy v0.0.0-20230111030713-bf00bc1b83b6 // indirect
	github.com/eapache/queue v1.1.0 // indirect
	github.com/eknkc/amber v0.0.0-20171010120322-cdade1c07385 // indirect
	github.com/fatih/structs v1.1.0 // indirect
	github.com/gin-contrib/sse v0.1.0 // indirect
	github.com/go-logr/logr v1.2.3 // indirect
	github.com/go-logr/stdr v1.2.2 // indirect
	github.com/go-playground/locales v0.14.0 // indirect
	github.com/go-playground/universal-translator v0.18.0 // indirect
	github.com/go-playground/validator/v10 v10.10.0 // indirect
	github.com/goccy/go-json v0.9.7 // indirect
	github.com/gogo/protobuf v1.3.2 // indirect
	github.com/golang-jwt/jwt v3.2.2+incompatible // indirect
	github.com/golang/protobuf v1.5.2 // indirect
	github.com/golang/snappy v0.0.4 // indirect
	github.com/google/go-querystring v1.1.0 // indirect
	github.com/gorilla/context v1.1.1 // indirect
	github.com/gorilla/securecookie v1.1.1 // indirect
	github.com/hashicorp/errwrap v1.1.0 // indirect
	github.com/hashicorp/go-multierror v1.1.1 // indirect
	github.com/hashicorp/go-uuid v1.0.3 // indirect
	github.com/imkira/go-interpol v1.1.0 // indirect
	github.com/iris-contrib/blackfriday v2.0.0+incompatible // indirect
	github.com/iris-contrib/jade v1.1.3 // indirect
	github.com/iris-contrib/pongo2 v0.0.1 // indirect
	github.com/iris-contrib/schema v0.0.1 // indirect
	github.com/jcmturner/aescts/v2 v2.0.0 // indirect
	github.com/jcmturner/dnsutils/v2 v2.0.0 // indirect
	github.com/jcmturner/gofork v1.7.6 // indirect
	github.com/jcmturner/gokrb5/v8 v8.4.3 // indirect
	github.com/jcmturner/rpc/v2 v2.0.3 // indirect
	github.com/jinzhu/inflection v1.0.0 // indirect
	github.com/jinzhu/now v1.1.5 // indirect
	github.com/json-iterator/go v1.1.12 // indirect
	github.com/kataras/golog v0.0.10 // indirect
	github.com/kataras/pio v0.0.2 // indirect
	github.com/kataras/sitemap v0.0.5 // indirect
	github.com/klauspost/compress v1.15.14 // indirect
	github.com/konsorten/go-windows-terminal-sequences v1.0.3 // indirect
	github.com/labstack/gommon v0.4.0 // indirect
	github.com/leodido/go-urn v1.2.1 // indirect
	github.com/mattn/go-colorable v0.1.12 // indirect
	github.com/mattn/go-isatty v0.0.14 // indirect
	github.com/matttproud/golang_protobuf_extensions v1.0.1 // indirect
	github.com/microcosm-cc/bluemonday v1.0.2 // indirect
	github.com/mitchellh/mapstructure v1.4.3 // indirect
	github.com/modern-go/concurrent v0.0.0-20180306012644-bacd9c7ef1dd // indirect
	github.com/modern-go/reflect2 v1.0.2 // indirect
	github.com/moul/http2curl v1.0.0 // indirect
	github.com/openzipkin/zipkin-go v0.4.1 // indirect
	github.com/pelletier/go-toml/v2 v2.0.1 // indirect
	github.com/pierrec/lz4/v4 v4.1.17 // indirect
	github.com/pkg/errors v0.9.1 // indirect
	github.com/pmezard/go-difflib v1.0.0 // indirect
	github.com/prometheus/client_model v0.2.0 // indirect
	github.com/prometheus/common v0.37.0 // indirect
	github.com/prometheus/procfs v0.8.0 // indirect
	github.com/rcrowley/go-metrics v0.0.0-20201227073835-cf1acfcdf475 // indirect
	github.com/ryanuber/columnize v2.1.0+incompatible // indirect
	github.com/schollz/closestmatch v2.1.0+incompatible // indirect
	github.com/sergi/go-diff v1.2.0 // indirect
	github.com/shiena/ansicolor v0.0.0-20200904210342-c7312218db18 // indirect
	github.com/shurcooL/sanitized_anchor_name v1.0.0 // indirect
	github.com/sirupsen/logrus v1.6.0 // indirect
	github.com/smartystreets/goconvey v1.7.2 // indirect
	github.com/ugorji/go/codec v1.2.7 // indirect
	github.com/valyala/bytebufferpool v1.0.0 // indirect
	github.com/valyala/fasthttp v1.41.0 // indirect
	github.com/valyala/fasttemplate v1.2.1 // indirect
	github.com/xeipuuv/gojsonschema v1.2.0 // indirect
	github.com/yalp/jsonpath v0.0.0-20180802001716-5cc68e5049a0 // indirect
	github.com/yudai/gojsondiff v1.0.0 // indirect
	github.com/yudai/golcs v0.0.0-20170316035057-ecda9a501e82 // indirect
	go.etcd.io/etcd/api/v3 v3.5.4 // indirect
	go.etcd.io/etcd/client/pkg/v3 v3.5.4 // indirect
	go.uber.org/atomic v1.9.0 // indirect
	go.uber.org/multierr v1.6.0 // indirect
	golang.org/x/net v0.5.0 // indirect
	golang.org/x/sys v0.4.0 // indirect
	golang.org/x/text v0.6.0 // indirect
	golang.org/x/time v0.0.0-20220722155302-e5dcc9cfc0b9 // indirect
	google.golang.org/genproto v0.0.0-20221010155953-15ba04fc1c0e // indirect
	gopkg.in/ini.v1 v1.51.1 // indirect
	gopkg.in/yaml.v2 v2.4.0 // indirect
	gopkg.in/yaml.v3 v3.0.1 // indirect
)
